Space Analytics 2025
…
Can make static ggplots interactive with |> ggplotly(), but doesn’t allow for nice de-stacking of bars. However, it is easily convertable to a function, which does not seem to be the case with the raw plotly code below:

# A tibble: 21 × 2
   missionType               n
   <chr>                 <int>
 1 Astrophysics            162
 2 Biology                  16
 3 Communications         1425
 4 Dedicated Rideshare      62
 5 Earth Science           888
 6 Government/Top Secret  2207
 7 Heliophysics             35
 8 Human Exploration       306
 9 Lunar Exploration        86
10 Materials Science        14
# ℹ 11 more rows

# A tibble: 85 × 2
   launchServiceProvider                                     n
   <chr>                                                 <int>
 1 Soviet Space Program                                   2453
 2 United States Air Force                                1051
 3 China Aerospace Science and Technology Corporation      501
 4 SpaceX                                                  433
 5 Russian Federal Space Agency (ROSCOSMOS)                329
 6 Arianespace                                             317
 7 Khrunichev State Research and Production Space Center   195
 8 United Launch Alliance                                  164
 9 Russian Space Forces                                    141
10 National Aeronautics and Space Administration            94
# ℹ 75 more rows
…
# A tibble: 44 × 2
   launchServiceProvider                 n
   <chr>                             <int>
 1 SpaceX                              433
 2 Arianespace                         317
 3 United Launch Alliance              164
 4 Lockheed Martin                      80
 5 Orbital Sciences Corporation         72
 6 Lockheed Space Operations Company    65
 7 Production Corporation Polyot        57
 8 Rocket Lab                           55
 9 Mitsubishi Heavy Industries          53
10 United Space Alliance                51
# ℹ 34 more rows
